Using pre-set license
Built from '2020.3/staging' branch; Version is '2020.3.8f1 (507919d4fff5) revision 5273881'; Using compiler version '192528614'; Build Type 'Release'
OS: 'Windows 10 Home; OS build 19042.1052; Version 2009; 64bit' Language: 'en' Physical Memory: 16318 MB
BatchMode: 1, IsHumanControllingUs: 0, StartBugReporterOnCrash: 0, Is64bit: 1, IsPro: 0

 COMMAND LINE ARGUMENTS:
C:\Program Files\Unity\Hub\Editor\2020.3.8f1\Editor\Unity.exe
-adb2
-batchMode
-noUpm
-name
AssetImportWorker0
-projectPath
C:/Users/Liam/9-hour-game-2-tower-defence/9 Hour Tower Defense
-logFile
Logs/AssetImportWorker0.log
-srvPort
62214
Successfully changed project path to: C:/Users/Liam/9-hour-game-2-tower-defence/9 Hour Tower Defense
C:/Users/Liam/9-hour-game-2-tower-defence/9 Hour Tower Defense
Using Asset Import Pipeline V2.
Refreshing native plugins compatible for Editor in 18.32 ms, found 0 plugins.
Preloading 0 native plugins for Editor in 0.00 ms.
Initialize engine version: 2020.3.8f1 (507919d4fff5)
[Subsystems] Discovering subsystems at path C:/Program Files/Unity/Hub/Editor/2020.3.8f1/Editor/Data/Resources/UnitySubsystems
[Subsystems] Discovering subsystems at path C:/Users/Liam/9-hour-game-2-tower-defence/9 Hour Tower Defense/Assets
GfxDevice: creating device client; threaded=0
Direct3D:
    Version:  Direct3D 11.0 [level 11.1]
    Renderer: NVIDIA GeForce RTX 2070 (ID=0x1f02)
    Vendor:   
    VRAM:     8031 MB
    Driver:   27.21.14.6140
Initialize mono
Mono path[0] = 'C:/Program Files/Unity/Hub/Editor/2020.3.8f1/Editor/Data/Managed'
Mono path[1] = 'C:/Program Files/Unity/Hub/Editor/2020.3.8f1/Editor/Data/MonoBleedingEdge/lib/mono/unityjit'
Mono config path = 'C:/Program Files/Unity/Hub/Editor/2020.3.8f1/Editor/Data/MonoBleedingEdge/etc'
Using monoOptions --debugger-agent=transport=dt_socket,embedding=1,server=y,suspend=n,address=127.0.0.1:56372
Begin MonoManager ReloadAssembly
Registering precompiled unity dll's ...
Register platform support module: C:/Program Files/Unity/Hub/Editor/2020.3.8f1/Editor/Data/PlaybackEngines/WindowsStandaloneSupport/UnityEditor.WindowsStandalone.Extensions.dll
Registered in 0.001488 seconds.
Native extension for WindowsStandalone target not found
Refreshing native plugins compatible for Editor in 18.63 ms, found 0 plugins.
Preloading 0 native plugins for Editor in 0.00 ms.
Mono: successfully reloaded assembly
- Completed reload, in  0.874 seconds
Platform modules already initialized, skipping
Registering precompiled user dll's ...
Registered in 0.000480 seconds.
Begin MonoManager ReloadAssembly
Native extension for WindowsStandalone target not found
Refreshing native plugins compatible for Editor in 0.19 ms, found 0 plugins.
Preloading 0 native plugins for Editor in 0.00 ms.
Mono: successfully reloaded assembly
- Completed reload, in  0.670 seconds
Platform modules already initialized, skipping
========================================================================
Worker process is ready to serve import requests
Launched and connected shader compiler UnityShaderCompiler.exe after 0.06 seconds
Refreshing native plugins compatible for Editor in 0.17 ms, found 0 plugins.
Preloading 0 native plugins for Editor in 0.00 ms.
Unloading 1119 Unused Serialized files (Serialized files now loaded: 0)
System memory in use before: 57.3 MB.
System memory in use after: 57.3 MB.

Unloading 10 unused Assets to reduce memory usage. Loaded Objects now: 1561.
Total: 1.504400 ms (FindLiveObjects: 0.092900 ms CreateObjectMapping: 0.023100 ms MarkObjects: 1.331700 ms  DeleteObjects: 0.056100 ms)

========================================================================
Received Import Request.
  path: Assets/Scripts/Turret.cs
  artifactKey: Guid(afb8bf443710c8546a288b3722bee0f9) Importer(815301076,1909f56bfc062723c751e8b465ee728b)
Start importing Assets/Scripts/Turret.cs using Guid(afb8bf443710c8546a288b3722bee0f9) Importer(815301076,1909f56bfc062723c751e8b465ee728b)  -> (artifact id: '4a925d861939d4c2eceb0035cbb6fd1b') in 0.074904 seconds
  Import took 0.076350 seconds .

========================================================================
Received Prepare
Registering precompiled user dll's ...
Registered in 0.000425 seconds.
Begin MonoManager ReloadAssembly
Native extension for WindowsStandalone target not found
Refreshing native plugins compatible for Editor in 0.18 ms, found 0 plugins.
Preloading 0 native plugins for Editor in 0.00 ms.
Mono: successfully reloaded assembly
- Completed reload, in  1.079 seconds
Platform modules already initialized, skipping
Refreshing native plugins compatible for Editor in 0.43 ms, found 0 plugins.
Preloading 0 native plugins for Editor in 0.00 ms.
Unloading 1114 Unused Serialized files (Serialized files now loaded: 0)
System memory in use before: 57.2 MB.
System memory in use after: 57.3 MB.

Unloading 5 unused Assets to reduce memory usage. Loaded Objects now: 1564.
Total: 1.327000 ms (FindLiveObjects: 0.092900 ms CreateObjectMapping: 0.023400 ms MarkObjects: 1.169600 ms  DeleteObjects: 0.040600 ms)

========================================================================
Received Prepare
Registering precompiled user dll's ...
Registered in 0.000792 seconds.
Begin MonoManager ReloadAssembly
Native extension for WindowsStandalone target not found
Refreshing native plugins compatible for Editor in 0.19 ms, found 0 plugins.
Preloading 0 native plugins for Editor in 0.00 ms.
Mono: successfully reloaded assembly
- Completed reload, in  0.587 seconds
Platform modules already initialized, skipping
Refreshing native plugins compatible for Editor in 0.17 ms, found 0 plugins.
Preloading 0 native plugins for Editor in 0.00 ms.
Unloading 1114 Unused Serialized files (Serialized files now loaded: 0)
System memory in use before: 57.2 MB.
System memory in use after: 57.3 MB.

Unloading 5 unused Assets to reduce memory usage. Loaded Objects now: 1567.
Total: 1.289900 ms (FindLiveObjects: 0.093100 ms CreateObjectMapping: 0.023000 ms MarkObjects: 1.137100 ms  DeleteObjects: 0.036100 ms)

========================================================================
Received Prepare
Registering precompiled user dll's ...
Registered in 0.000396 seconds.
Begin MonoManager ReloadAssembly
Native extension for WindowsStandalone target not found
Refreshing native plugins compatible for Editor in 0.18 ms, found 0 plugins.
Preloading 0 native plugins for Editor in 0.00 ms.
Mono: successfully reloaded assembly
- Completed reload, in  0.612 seconds
Platform modules already initialized, skipping
Refreshing native plugins compatible for Editor in 0.17 ms, found 0 plugins.
Preloading 0 native plugins for Editor in 0.00 ms.
Unloading 1114 Unused Serialized files (Serialized files now loaded: 0)
System memory in use before: 57.2 MB.
System memory in use after: 57.3 MB.

Unloading 5 unused Assets to reduce memory usage. Loaded Objects now: 1570.
Total: 1.372900 ms (FindLiveObjects: 0.093800 ms CreateObjectMapping: 0.023500 ms MarkObjects: 1.220000 ms  DeleteObjects: 0.035100 ms)

========================================================================
Received Import Request.
  Time since last request: 552.326098 seconds.
  path: Assets/Prefabs/Turret.prefab
  artifactKey: Guid(6fe2a87c8bf17b04d9b4f77c3e4da3b8) Importer(815301076,1909f56bfc062723c751e8b465ee728b)
Start importing Assets/Prefabs/Turret.prefab using Guid(6fe2a87c8bf17b04d9b4f77c3e4da3b8) Importer(815301076,1909f56bfc062723c751e8b465ee728b)  -> (artifact id: 'ca4566dd116b35ecf46fde5618bff562') in 0.181153 seconds
  Import took 0.183549 seconds .

========================================================================
Received Prepare
Registering precompiled user dll's ...
Registered in 0.000579 seconds.
Begin MonoManager ReloadAssembly
Native extension for WindowsStandalone target not found
Refreshing native plugins compatible for Editor in 0.17 ms, found 0 plugins.
Preloading 0 native plugins for Editor in 0.00 ms.
Mono: successfully reloaded assembly
- Completed reload, in  0.598 seconds
Platform modules already initialized, skipping
Refreshing native plugins compatible for Editor in 0.17 ms, found 0 plugins.
Preloading 0 native plugins for Editor in 0.00 ms.
Unloading 1114 Unused Serialized files (Serialized files now loaded: 0)
System memory in use before: 60.4 MB.
System memory in use after: 60.5 MB.

Unloading 5 unused Assets to reduce memory usage. Loaded Objects now: 1581.
Total: 1.336600 ms (FindLiveObjects: 0.097700 ms CreateObjectMapping: 0.025600 ms MarkObjects: 1.180800 ms  DeleteObjects: 0.032100 ms)

========================================================================
Received Import Request.
  Time since last request: 71.420101 seconds.
  path: Assets/Prefabs/Bullet.prefab
  artifactKey: Guid(8a36a407ea8c26c4a992a961fb4608de) Importer(815301076,1909f56bfc062723c751e8b465ee728b)
Start importing Assets/Prefabs/Bullet.prefab using Guid(8a36a407ea8c26c4a992a961fb4608de) Importer(815301076,1909f56bfc062723c751e8b465ee728b)  -> (artifact id: '0b3b4ccf74b9edbaecdf003408f98d8b') in 0.050528 seconds
  Import took 0.052885 seconds .

========================================================================
Received Import Request.
  Time since last request: 0.017002 seconds.
  path: Assets/Prefabs/Bullet.prefab
  artifactKey: Guid(8a36a407ea8c26c4a992a961fb4608de) Importer(815301076,1909f56bfc062723c751e8b465ee728b)
Start importing Assets/Prefabs/Bullet.prefab using Guid(8a36a407ea8c26c4a992a961fb4608de) Importer(815301076,1909f56bfc062723c751e8b465ee728b)  -> (artifact id: '0b3b4ccf74b9edbaecdf003408f98d8b') in 0.014374 seconds
  Import took 0.016198 seconds .

========================================================================
Received Import Request.
  Time since last request: 8.924047 seconds.
  path: Assets/Prefabs/Bullet.prefab
  artifactKey: Guid(8a36a407ea8c26c4a992a961fb4608de) Importer(815301076,1909f56bfc062723c751e8b465ee728b)
Start importing Assets/Prefabs/Bullet.prefab using Guid(8a36a407ea8c26c4a992a961fb4608de) Importer(815301076,1909f56bfc062723c751e8b465ee728b)  -> (artifact id: '74de16ea7c887e021f0a64186258079e') in 0.006363 seconds
  Import took 0.008273 seconds .

========================================================================
Received Import Request.
  Time since last request: 0.006174 seconds.
  path: Assets/Prefabs/Bullet.prefab
  artifactKey: Guid(8a36a407ea8c26c4a992a961fb4608de) Importer(815301076,1909f56bfc062723c751e8b465ee728b)
Start importing Assets/Prefabs/Bullet.prefab using Guid(8a36a407ea8c26c4a992a961fb4608de) Importer(815301076,1909f56bfc062723c751e8b465ee728b)  -> (artifact id: '74de16ea7c887e021f0a64186258079e') in 0.010974 seconds
  Import took 0.012757 seconds .

========================================================================
Received Import Request.
  Time since last request: 4.271774 seconds.
  path: Assets/Materials/Turret.mat
  artifactKey: Guid(e5ac50b3be0485747adedd6037e79c83) Importer(815301076,1909f56bfc062723c751e8b465ee728b)
Start importing Assets/Materials/Turret.mat using Guid(e5ac50b3be0485747adedd6037e79c83) Importer(815301076,1909f56bfc062723c751e8b465ee728b)  -> (artifact id: '3499b5ef9b47b80d3afc2bba3bb2b48e') in 0.024638 seconds
  Import took 0.026596 seconds .

========================================================================
Received Import Request.
  Time since last request: 0.000736 seconds.
  path: Assets/Materials/Turret.mat
  artifactKey: Guid(e5ac50b3be0485747adedd6037e79c83) Importer(815301076,1909f56bfc062723c751e8b465ee728b)
Start importing Assets/Materials/Turret.mat using Guid(e5ac50b3be0485747adedd6037e79c83) Importer(815301076,1909f56bfc062723c751e8b465ee728b)  -> (artifact id: '3499b5ef9b47b80d3afc2bba3bb2b48e') in 0.011768 seconds
  Import took 0.013659 seconds .

========================================================================
Received Import Request.
  Time since last request: 8.906746 seconds.
  path: Assets/Materials/Bullet.mat
  artifactKey: Guid(bd85bbfa296519340b35d398ac72dc73) Importer(815301076,1909f56bfc062723c751e8b465ee728b)
Start importing Assets/Materials/Bullet.mat using Guid(bd85bbfa296519340b35d398ac72dc73) Importer(815301076,1909f56bfc062723c751e8b465ee728b)  -> (artifact id: 'ab0b69545f18fd129a284beca4c040e0') in 0.012694 seconds
  Import took 0.014317 seconds .

========================================================================
Received Import Request.
  Time since last request: 44.503311 seconds.
  path: Assets/Prefabs/Bullet.prefab
  artifactKey: Guid(8a36a407ea8c26c4a992a961fb4608de) Importer(815301076,1909f56bfc062723c751e8b465ee728b)
Start importing Assets/Prefabs/Bullet.prefab using Guid(8a36a407ea8c26c4a992a961fb4608de) Importer(815301076,1909f56bfc062723c751e8b465ee728b)  -> (artifact id: '80849f877b92d4b16d54348b52a68cee') in 0.009661 seconds
  Import took 0.011528 seconds .

========================================================================
Received Import Request.
  Time since last request: 0.008711 seconds.
  path: Assets/Prefabs/Bullet.prefab
  artifactKey: Guid(8a36a407ea8c26c4a992a961fb4608de) Importer(815301076,1909f56bfc062723c751e8b465ee728b)
Start importing Assets/Prefabs/Bullet.prefab using Guid(8a36a407ea8c26c4a992a961fb4608de) Importer(815301076,1909f56bfc062723c751e8b465ee728b)  -> (artifact id: '80849f877b92d4b16d54348b52a68cee') in 0.007659 seconds
  Import took 0.009284 seconds .

========================================================================
Received Prepare
Registering precompiled user dll's ...
Registered in 0.000476 seconds.
Begin MonoManager ReloadAssembly
Native extension for WindowsStandalone target not found
Refreshing native plugins compatible for Editor in 0.17 ms, found 0 plugins.
Preloading 0 native plugins for Editor in 0.00 ms.
Mono: successfully reloaded assembly
- Completed reload, in  0.601 seconds
Platform modules already initialized, skipping
Refreshing native plugins compatible for Editor in 0.17 ms, found 0 plugins.
Preloading 0 native plugins for Editor in 0.00 ms.
Unloading 1114 Unused Serialized files (Serialized files now loaded: 0)
System memory in use before: 60.6 MB.
System memory in use after: 60.7 MB.

Unloading 6 unused Assets to reduce memory usage. Loaded Objects now: 1618.
Total: 1.329900 ms (FindLiveObjects: 0.100200 ms CreateObjectMapping: 0.024100 ms MarkObjects: 1.166800 ms  DeleteObjects: 0.038000 ms)

========================================================================
Received Import Request.
  Time since last request: 141.103859 seconds.
  path: Assets/Prefabs/Turret.prefab
  artifactKey: Guid(6fe2a87c8bf17b04d9b4f77c3e4da3b8) Importer(815301076,1909f56bfc062723c751e8b465ee728b)
Start importing Assets/Prefabs/Turret.prefab using Guid(6fe2a87c8bf17b04d9b4f77c3e4da3b8) Importer(815301076,1909f56bfc062723c751e8b465ee728b)  -> (artifact id: 'b080878c60fe0f560e4b48ca49da5b98') in 0.050606 seconds
  Import took 0.052430 seconds .

========================================================================
Received Import Request.
  Time since last request: 7.094746 seconds.
  path: Assets/Prefabs/Turret.prefab
  artifactKey: Guid(6fe2a87c8bf17b04d9b4f77c3e4da3b8) Importer(815301076,1909f56bfc062723c751e8b465ee728b)
Start importing Assets/Prefabs/Turret.prefab using Guid(6fe2a87c8bf17b04d9b4f77c3e4da3b8) Importer(815301076,1909f56bfc062723c751e8b465ee728b)  -> (artifact id: '376c0572c5b5dc74f775a3430aa7e5fe') in 0.007448 seconds
  Import took 0.009207 seconds .

========================================================================
Received Import Request.
  Time since last request: 0.002213 seconds.
  path: Assets/Prefabs/Turret.prefab
  artifactKey: Guid(6fe2a87c8bf17b04d9b4f77c3e4da3b8) Importer(815301076,1909f56bfc062723c751e8b465ee728b)
Start importing Assets/Prefabs/Turret.prefab using Guid(6fe2a87c8bf17b04d9b4f77c3e4da3b8) Importer(815301076,1909f56bfc062723c751e8b465ee728b)  -> (artifact id: '376c0572c5b5dc74f775a3430aa7e5fe') in 0.011613 seconds
  Import took 0.013307 seconds .

========================================================================
Received Import Request.
  Time since last request: 1.182775 seconds.
  path: Assets/Prefabs/Turret.prefab
  artifactKey: Guid(6fe2a87c8bf17b04d9b4f77c3e4da3b8) Importer(815301076,1909f56bfc062723c751e8b465ee728b)
Start importing Assets/Prefabs/Turret.prefab using Guid(6fe2a87c8bf17b04d9b4f77c3e4da3b8) Importer(815301076,1909f56bfc062723c751e8b465ee728b)  -> (artifact id: '57da97418e21fdde91265c0637db337c') in 0.008515 seconds
  Import took 0.010723 seconds .

========================================================================
Received Import Request.
  Time since last request: 0.001732 seconds.
  path: Assets/Prefabs/Turret.prefab
  artifactKey: Guid(6fe2a87c8bf17b04d9b4f77c3e4da3b8) Importer(815301076,1909f56bfc062723c751e8b465ee728b)
Start importing Assets/Prefabs/Turret.prefab using Guid(6fe2a87c8bf17b04d9b4f77c3e4da3b8) Importer(815301076,1909f56bfc062723c751e8b465ee728b)  -> (artifact id: '57da97418e21fdde91265c0637db337c') in 0.007399 seconds
  Import took 0.009099 seconds .

========================================================================
Received Import Request.
  Time since last request: 11.594498 seconds.
  path: Assets/Prefabs/Turret.prefab
  artifactKey: Guid(6fe2a87c8bf17b04d9b4f77c3e4da3b8) Importer(815301076,1909f56bfc062723c751e8b465ee728b)
Start importing Assets/Prefabs/Turret.prefab using Guid(6fe2a87c8bf17b04d9b4f77c3e4da3b8) Importer(815301076,1909f56bfc062723c751e8b465ee728b)  -> (artifact id: 'ed24ae771adf3a15a8e7dc71827c94e4') in 0.007372 seconds
  Import took 0.009403 seconds .

========================================================================
Received Import Request.
  Time since last request: 6.627740 seconds.
  path: Assets/Prefabs/Turret.prefab
  artifactKey: Guid(6fe2a87c8bf17b04d9b4f77c3e4da3b8) Importer(815301076,1909f56bfc062723c751e8b465ee728b)
Start importing Assets/Prefabs/Turret.prefab using Guid(6fe2a87c8bf17b04d9b4f77c3e4da3b8) Importer(815301076,1909f56bfc062723c751e8b465ee728b)  -> (artifact id: 'e2819c517b9e46883697d86d41a24911') in 0.012096 seconds
  Import took 0.014383 seconds .

========================================================================
Received Import Request.
  Time since last request: 13.495399 seconds.
  path: Assets/Prefabs/Turret.prefab
  artifactKey: Guid(6fe2a87c8bf17b04d9b4f77c3e4da3b8) Importer(815301076,1909f56bfc062723c751e8b465ee728b)
Start importing Assets/Prefabs/Turret.prefab using Guid(6fe2a87c8bf17b04d9b4f77c3e4da3b8) Importer(815301076,1909f56bfc062723c751e8b465ee728b)  -> (artifact id: '4a24bba41680faa4353cb3e3a02e7a0b') in 0.009870 seconds
  Import took 0.012120 seconds .

========================================================================
Received Import Request.
  Time since last request: 4.438665 seconds.
  path: Assets/Prefabs/Turret.prefab
  artifactKey: Guid(6fe2a87c8bf17b04d9b4f77c3e4da3b8) Importer(815301076,1909f56bfc062723c751e8b465ee728b)
Start importing Assets/Prefabs/Turret.prefab using Guid(6fe2a87c8bf17b04d9b4f77c3e4da3b8) Importer(815301076,1909f56bfc062723c751e8b465ee728b)  -> (artifact id: 'cadbeb5068332b7150d5f4bf75cb6d3a') in 0.008946 seconds
  Import took 0.011314 seconds .

========================================================================
Received Import Request.
  Time since last request: 1.388281 seconds.
  path: Assets/Prefabs/Turret.prefab
  artifactKey: Guid(6fe2a87c8bf17b04d9b4f77c3e4da3b8) Importer(815301076,1909f56bfc062723c751e8b465ee728b)
Start importing Assets/Prefabs/Turret.prefab using Guid(6fe2a87c8bf17b04d9b4f77c3e4da3b8) Importer(815301076,1909f56bfc062723c751e8b465ee728b)  -> (artifact id: 'a79dc9b71fffc8d237ef52d486bc5dff') in 0.007304 seconds
  Import took 0.009120 seconds .

========================================================================
Received Import Request.
  Time since last request: 154.139358 seconds.
  path: Assets/Prefabs/Turret.prefab
  artifactKey: Guid(6fe2a87c8bf17b04d9b4f77c3e4da3b8) Importer(815301076,1909f56bfc062723c751e8b465ee728b)
Start importing Assets/Prefabs/Turret.prefab using Guid(6fe2a87c8bf17b04d9b4f77c3e4da3b8) Importer(815301076,1909f56bfc062723c751e8b465ee728b)  -> (artifact id: '9f24b15e8ec5d627c6ee034e5e456e25') in 0.008244 seconds
  Import took 0.010328 seconds .

========================================================================
Received Import Request.
  Time since last request: 4.383864 seconds.
  path: Assets/Prefabs/Turret.prefab
  artifactKey: Guid(6fe2a87c8bf17b04d9b4f77c3e4da3b8) Importer(815301076,1909f56bfc062723c751e8b465ee728b)
Start importing Assets/Prefabs/Turret.prefab using Guid(6fe2a87c8bf17b04d9b4f77c3e4da3b8) Importer(815301076,1909f56bfc062723c751e8b465ee728b)  -> (artifact id: '478469b3955a507d9e1bd7287bddd7f3') in 0.009087 seconds
  Import took 0.011450 seconds .

========================================================================
Received Import Request.
  Time since last request: 9.571048 seconds.
  path: Assets/Prefabs/Turret.prefab
  artifactKey: Guid(6fe2a87c8bf17b04d9b4f77c3e4da3b8) Importer(815301076,1909f56bfc062723c751e8b465ee728b)
Start importing Assets/Prefabs/Turret.prefab using Guid(6fe2a87c8bf17b04d9b4f77c3e4da3b8) Importer(815301076,1909f56bfc062723c751e8b465ee728b)  -> (artifact id: '207537b784dc7cfcfe54b6a80ab3d21f') in 0.011410 seconds
  Import took 0.013927 seconds .

========================================================================
Received Import Request.
  Time since last request: 13.529605 seconds.
  path: Assets/Prefabs/Turret.prefab
  artifactKey: Guid(6fe2a87c8bf17b04d9b4f77c3e4da3b8) Importer(815301076,1909f56bfc062723c751e8b465ee728b)
Start importing Assets/Prefabs/Turret.prefab using Guid(6fe2a87c8bf17b04d9b4f77c3e4da3b8) Importer(815301076,1909f56bfc062723c751e8b465ee728b)  -> (artifact id: 'fa2cf04dde8d249e5a8de21d4b26706f') in 0.008353 seconds
  Import took 0.010260 seconds .

========================================================================
Received Import Request.
  Time since last request: 1.596153 seconds.
  path: Assets/Prefabs/Turret.prefab
  artifactKey: Guid(6fe2a87c8bf17b04d9b4f77c3e4da3b8) Importer(815301076,1909f56bfc062723c751e8b465ee728b)
Start importing Assets/Prefabs/Turret.prefab using Guid(6fe2a87c8bf17b04d9b4f77c3e4da3b8) Importer(815301076,1909f56bfc062723c751e8b465ee728b)  -> (artifact id: '91579a038a05a410d6d00170e75eb432') in 0.006335 seconds
  Import took 0.007989 seconds .

========================================================================
Received Import Request.
  Time since last request: 3.198831 seconds.
  path: Assets/Prefabs/Turret.prefab
  artifactKey: Guid(6fe2a87c8bf17b04d9b4f77c3e4da3b8) Importer(815301076,1909f56bfc062723c751e8b465ee728b)
Start importing Assets/Prefabs/Turret.prefab using Guid(6fe2a87c8bf17b04d9b4f77c3e4da3b8) Importer(815301076,1909f56bfc062723c751e8b465ee728b)  -> (artifact id: 'bf4a84399eda509bbcfd7d62753d0a88') in 0.006957 seconds
  Import took 0.009032 seconds .

========================================================================
Received Import Request.
  Time since last request: 4.443349 seconds.
  path: Assets/Prefabs/Turret.prefab
  artifactKey: Guid(6fe2a87c8bf17b04d9b4f77c3e4da3b8) Importer(815301076,1909f56bfc062723c751e8b465ee728b)
Start importing Assets/Prefabs/Turret.prefab using Guid(6fe2a87c8bf17b04d9b4f77c3e4da3b8) Importer(815301076,1909f56bfc062723c751e8b465ee728b)  -> (artifact id: '92e3826ff19407d526811d52a2a86646') in 0.011177 seconds
  Import took 0.013269 seconds .

========================================================================
Received Import Request.
  Time since last request: 26.941931 seconds.
  path: Assets/Prefabs/Turret.prefab
  artifactKey: Guid(6fe2a87c8bf17b04d9b4f77c3e4da3b8) Importer(815301076,1909f56bfc062723c751e8b465ee728b)
Start importing Assets/Prefabs/Turret.prefab using Guid(6fe2a87c8bf17b04d9b4f77c3e4da3b8) Importer(815301076,1909f56bfc062723c751e8b465ee728b)  -> (artifact id: '1c7e256932141a983b72aedc2f766f6f') in 0.008741 seconds
  Import took 0.010691 seconds .

========================================================================
Received Prepare
Registering precompiled user dll's ...
Registered in 0.000440 seconds.
Begin MonoManager ReloadAssembly
Native extension for WindowsStandalone target not found
Refreshing native plugins compatible for Editor in 0.18 ms, found 0 plugins.
Preloading 0 native plugins for Editor in 0.00 ms.
Mono: successfully reloaded assembly
- Completed reload, in  0.619 seconds
Platform modules already initialized, skipping
Refreshing native plugins compatible for Editor in 0.18 ms, found 0 plugins.
Preloading 0 native plugins for Editor in 0.00 ms.
Unloading 1115 Unused Serialized files (Serialized files now loaded: 0)
System memory in use before: 60.7 MB.
System memory in use after: 60.7 MB.

Unloading 5 unused Assets to reduce memory usage. Loaded Objects now: 1623.
Total: 1.245000 ms (FindLiveObjects: 0.104400 ms CreateObjectMapping: 0.027100 ms MarkObjects: 1.078300 ms  DeleteObjects: 0.034500 ms)

========================================================================
Received Import Request.
  Time since last request: 24.320701 seconds.
  path: Assets/Scripts/Bullet.cs
  artifactKey: Guid(6ddb8017001292849bb7f291afc09319) Importer(815301076,1909f56bfc062723c751e8b465ee728b)
Start importing Assets/Scripts/Bullet.cs using Guid(6ddb8017001292849bb7f291afc09319) Importer(815301076,1909f56bfc062723c751e8b465ee728b)  -> (artifact id: 'f99ca2fb7337a7a670dbfe962987a3a2') in 0.003042 seconds
  Import took 0.004451 seconds .

========================================================================
Received Prepare
Registering precompiled user dll's ...
Registered in 0.000414 seconds.
Begin MonoManager ReloadAssembly
Native extension for WindowsStandalone target not found
Refreshing native plugins compatible for Editor in 0.18 ms, found 0 plugins.
Preloading 0 native plugins for Editor in 0.00 ms.
Mono: successfully reloaded assembly
- Completed reload, in  0.628 seconds
Platform modules already initialized, skipping
Refreshing native plugins compatible for Editor in 0.18 ms, found 0 plugins.
Preloading 0 native plugins for Editor in 0.00 ms.
Unloading 1115 Unused Serialized files (Serialized files now loaded: 0)
System memory in use before: 60.7 MB.
System memory in use after: 60.7 MB.

Unloading 5 unused Assets to reduce memory usage. Loaded Objects now: 1626.
Total: 1.327800 ms (FindLiveObjects: 0.112500 ms CreateObjectMapping: 0.029300 ms MarkObjects: 1.145900 ms  DeleteObjects: 0.039200 ms)

========================================================================
Received Import Request.
  Time since last request: 9.914074 seconds.
  path: Assets/Prefabs/Bullet.prefab
  artifactKey: Guid(8a36a407ea8c26c4a992a961fb4608de) Importer(815301076,1909f56bfc062723c751e8b465ee728b)
Start importing Assets/Prefabs/Bullet.prefab using Guid(8a36a407ea8c26c4a992a961fb4608de) Importer(815301076,1909f56bfc062723c751e8b465ee728b)  -> (artifact id: 'cbce8bb9a229d4b1a0b79833cb8599dc') in 0.052893 seconds
  Import took 0.054541 seconds .

========================================================================
Received Prepare
Registering precompiled user dll's ...
Registered in 0.000485 seconds.
Begin MonoManager ReloadAssembly
Native extension for WindowsStandalone target not found
Refreshing native plugins compatible for Editor in 0.18 ms, found 0 plugins.
Preloading 0 native plugins for Editor in 0.00 ms.
Mono: successfully reloaded assembly
- Completed reload, in  0.609 seconds
Platform modules already initialized, skipping
Refreshing native plugins compatible for Editor in 0.17 ms, found 0 plugins.
Preloading 0 native plugins for Editor in 0.00 ms.
Unloading 1115 Unused Serialized files (Serialized files now loaded: 0)
System memory in use before: 60.7 MB.
System memory in use after: 60.8 MB.

Unloading 5 unused Assets to reduce memory usage. Loaded Objects now: 1630.
Total: 1.245300 ms (FindLiveObjects: 0.100300 ms CreateObjectMapping: 0.023800 ms MarkObjects: 1.085500 ms  DeleteObjects: 0.035200 ms)

========================================================================
Received Prepare
Registering precompiled user dll's ...
Registered in 0.000524 seconds.
Begin MonoManager ReloadAssembly
Native extension for WindowsStandalone target not found
Refreshing native plugins compatible for Editor in 0.19 ms, found 0 plugins.
Preloading 0 native plugins for Editor in 0.00 ms.
Mono: successfully reloaded assembly
- Completed reload, in  0.604 seconds
Platform modules already initialized, skipping
Refreshing native plugins compatible for Editor in 0.18 ms, found 0 plugins.
Preloading 0 native plugins for Editor in 0.00 ms.
Unloading 1115 Unused Serialized files (Serialized files now loaded: 0)
System memory in use before: 60.7 MB.
System memory in use after: 60.8 MB.

Unloading 5 unused Assets to reduce memory usage. Loaded Objects now: 1633.
Total: 1.465000 ms (FindLiveObjects: 0.114600 ms CreateObjectMapping: 0.024800 ms MarkObjects: 1.288600 ms  DeleteObjects: 0.036500 ms)

========================================================================
Received Import Request.
  Time since last request: 450.054811 seconds.
  path: Assets/Prefabs/Bullet.prefab
  artifactKey: Guid(8a36a407ea8c26c4a992a961fb4608de) Importer(815301076,1909f56bfc062723c751e8b465ee728b)
Start importing Assets/Prefabs/Bullet.prefab using Guid(8a36a407ea8c26c4a992a961fb4608de) Importer(815301076,1909f56bfc062723c751e8b465ee728b)  -> (artifact id: '2ae6192d3087ff6c5af2e8f27511c02b') in 0.046456 seconds
  Import took 0.048591 seconds .

========================================================================
Received Import Request.
  Time since last request: 0.000245 seconds.
  path: Assets/Prefabs/Turret.prefab
  artifactKey: Guid(6fe2a87c8bf17b04d9b4f77c3e4da3b8) Importer(815301076,1909f56bfc062723c751e8b465ee728b)
Start importing Assets/Prefabs/Turret.prefab using Guid(6fe2a87c8bf17b04d9b4f77c3e4da3b8) Importer(815301076,1909f56bfc062723c751e8b465ee728b)  -> (artifact id: 'e5b26bb68c1dfedcb4e85168d9a51686') in 0.012425 seconds
  Import took 0.014280 seconds .

========================================================================
Received Import Request.
  Time since last request: 4.794734 seconds.
  path: Assets/Prefabs/Turret.prefab
  artifactKey: Guid(6fe2a87c8bf17b04d9b4f77c3e4da3b8) Importer(815301076,1909f56bfc062723c751e8b465ee728b)
Start importing Assets/Prefabs/Turret.prefab using Guid(6fe2a87c8bf17b04d9b4f77c3e4da3b8) Importer(815301076,1909f56bfc062723c751e8b465ee728b)  -> (artifact id: '92e08c77833340b0f96310a90dac0791') in 0.010696 seconds
  Import took 0.012824 seconds .

========================================================================
Received Prepare
Registering precompiled user dll's ...
Registered in 0.000496 seconds.
Begin MonoManager ReloadAssembly
Native extension for WindowsStandalone target not found
Refreshing native plugins compatible for Editor in 0.31 ms, found 0 plugins.
Preloading 0 native plugins for Editor in 0.00 ms.
Mono: successfully reloaded assembly
- Completed reload, in  0.616 seconds
Platform modules already initialized, skipping
Refreshing native plugins compatible for Editor in 0.18 ms, found 0 plugins.
Preloading 0 native plugins for Editor in 0.00 ms.
Unloading 1115 Unused Serialized files (Serialized files now loaded: 0)
System memory in use before: 60.7 MB.
System memory in use after: 60.8 MB.

Unloading 5 unused Assets to reduce memory usage. Loaded Objects now: 1637.
Total: 1.383400 ms (FindLiveObjects: 0.109400 ms CreateObjectMapping: 0.027100 ms MarkObjects: 1.204500 ms  DeleteObjects: 0.041900 ms)

========================================================================
Received Prepare
Registering precompiled user dll's ...
Registered in 0.000828 seconds.
Begin MonoManager ReloadAssembly
Native extension for WindowsStandalone target not found
Refreshing native plugins compatible for Editor in 0.18 ms, found 0 plugins.
Preloading 0 native plugins for Editor in 0.00 ms.
Mono: successfully reloaded assembly
- Completed reload, in  0.654 seconds
Platform modules already initialized, skipping
Refreshing native plugins compatible for Editor in 0.17 ms, found 0 plugins.
Preloading 0 native plugins for Editor in 0.00 ms.
Unloading 1115 Unused Serialized files (Serialized files now loaded: 0)
System memory in use before: 60.7 MB.
System memory in use after: 60.8 MB.

Unloading 5 unused Assets to reduce memory usage. Loaded Objects now: 1640.
Total: 1.322900 ms (FindLiveObjects: 0.122100 ms CreateObjectMapping: 0.029600 ms MarkObjects: 1.134500 ms  DeleteObjects: 0.035900 ms)

========================================================================
Received Import Request.
  Time since last request: 187.268148 seconds.
  path: Assets/Prefabs/Bullet.prefab
  artifactKey: Guid(8a36a407ea8c26c4a992a961fb4608de) Importer(815301076,1909f56bfc062723c751e8b465ee728b)
Start importing Assets/Prefabs/Bullet.prefab using Guid(8a36a407ea8c26c4a992a961fb4608de) Importer(815301076,1909f56bfc062723c751e8b465ee728b)  -> (artifact id: '0be85ade9178fb6e9e35252b530bca51') in 0.043633 seconds
  Import took 0.045327 seconds .

========================================================================
Received Prepare
Registering precompiled user dll's ...
Registered in 0.000816 seconds.
Begin MonoManager ReloadAssembly
Native extension for WindowsStandalone target not found
Refreshing native plugins compatible for Editor in 0.18 ms, found 0 plugins.
Preloading 0 native plugins for Editor in 0.00 ms.
Mono: successfully reloaded assembly
- Completed reload, in  0.590 seconds
Platform modules already initialized, skipping
Refreshing native plugins compatible for Editor in 0.18 ms, found 0 plugins.
Preloading 0 native plugins for Editor in 0.00 ms.
Unloading 1115 Unused Serialized files (Serialized files now loaded: 0)
System memory in use before: 60.7 MB.
System memory in use after: 60.8 MB.

Unloading 5 unused Assets to reduce memory usage. Loaded Objects now: 1644.
Total: 1.585100 ms (FindLiveObjects: 0.098300 ms CreateObjectMapping: 0.024000 ms MarkObjects: 1.421400 ms  DeleteObjects: 0.040900 ms)

========================================================================
Received Import Request.
  Time since last request: 137.226546 seconds.
  path: Assets/Materials/New Material.mat
  artifactKey: Guid(0fbe81ff1bfef1c45963f16ca1f3b3bc) Importer(815301076,1909f56bfc062723c751e8b465ee728b)
Start importing Assets/Materials/New Material.mat using Guid(0fbe81ff1bfef1c45963f16ca1f3b3bc) Importer(815301076,1909f56bfc062723c751e8b465ee728b)  -> (artifact id: '3c8f5a143e2403996ac4dd216bae4fd3') in 0.054980 seconds
  Import took 0.057184 seconds .

========================================================================
Received Import Request.
  Time since last request: 9.822756 seconds.
  path: Assets/Materials/BulletImpact.mat
  artifactKey: Guid(0fbe81ff1bfef1c45963f16ca1f3b3bc) Importer(815301076,1909f56bfc062723c751e8b465ee728b)
Start importing Assets/Materials/BulletImpact.mat using Guid(0fbe81ff1bfef1c45963f16ca1f3b3bc) Importer(815301076,1909f56bfc062723c751e8b465ee728b)  -> (artifact id: 'b446ae367f2257d01be26a75db894738') in 0.013912 seconds
  Import took 0.016020 seconds .

========================================================================
Received Import Request.
  Time since last request: 652.683432 seconds.
  path: Assets/Prefabs/Ground.prefab
  artifactKey: Guid(2ca768b48704ea94bb68a8eadeee3536) Importer(815301076,1909f56bfc062723c751e8b465ee728b)
Start importing Assets/Prefabs/Ground.prefab using Guid(2ca768b48704ea94bb68a8eadeee3536) Importer(815301076,1909f56bfc062723c751e8b465ee728b)  -> (artifact id: '645925c67f9b49954819bae60d7042d9') in 0.023726 seconds
  Import took 0.025751 seconds .

========================================================================
Received Import Request.
  Time since last request: 61.770688 seconds.
  path: Assets/Prefabs/Hit.prefab
  artifactKey: Guid(688b733a213a4294b855bf81f56db750) Importer(815301076,1909f56bfc062723c751e8b465ee728b)
Start importing Assets/Prefabs/Hit.prefab using Guid(688b733a213a4294b855bf81f56db750) Importer(815301076,1909f56bfc062723c751e8b465ee728b)  -> (artifact id: '3199f60b7c2d7ade287997d9e854b4a3') in 0.009320 seconds
  Import took 0.011358 seconds .

========================================================================
Received Import Request.
  Time since last request: 0.009635 seconds.
  path: Assets/Prefabs/Hit.prefab
  artifactKey: Guid(688b733a213a4294b855bf81f56db750) Importer(815301076,1909f56bfc062723c751e8b465ee728b)
Start importing Assets/Prefabs/Hit.prefab using Guid(688b733a213a4294b855bf81f56db750) Importer(815301076,1909f56bfc062723c751e8b465ee728b)  -> (artifact id: '3199f60b7c2d7ade287997d9e854b4a3') in 0.003785 seconds
  Import took 0.005847 seconds .

========================================================================
Received Prepare
Registering precompiled user dll's ...
Registered in 0.000564 seconds.
Begin MonoManager ReloadAssembly
Native extension for WindowsStandalone target not found
Refreshing native plugins compatible for Editor in 0.18 ms, found 0 plugins.
Preloading 0 native plugins for Editor in 0.00 ms.
Mono: successfully reloaded assembly
- Completed reload, in  0.596 seconds
Platform modules already initialized, skipping
Refreshing native plugins compatible for Editor in 0.21 ms, found 0 plugins.
Preloading 0 native plugins for Editor in 0.00 ms.
Unloading 1115 Unused Serialized files (Serialized files now loaded: 0)
System memory in use before: 60.8 MB.
System memory in use after: 60.8 MB.

Unloading 5 unused Assets to reduce memory usage. Loaded Objects now: 1649.
Total: 1.363200 ms (FindLiveObjects: 0.100200 ms CreateObjectMapping: 0.023900 ms MarkObjects: 1.200700 ms  DeleteObjects: 0.037800 ms)

========================================================================
Received Import Request.
  Time since last request: 63.686234 seconds.
  path: Assets/Prefabs/Bullet.prefab
  artifactKey: Guid(8a36a407ea8c26c4a992a961fb4608de) Importer(815301076,1909f56bfc062723c751e8b465ee728b)
Start importing Assets/Prefabs/Bullet.prefab using Guid(8a36a407ea8c26c4a992a961fb4608de) Importer(815301076,1909f56bfc062723c751e8b465ee728b)  -> (artifact id: '23981e4b61e64a9a32f62a5b7e33fd63') in 0.042897 seconds
  Import took 0.044465 seconds .

========================================================================
Received Prepare
Registering precompiled user dll's ...
Registered in 0.000458 seconds.
Begin MonoManager ReloadAssembly
Native extension for WindowsStandalone target not found
Refreshing native plugins compatible for Editor in 0.17 ms, found 0 plugins.
Preloading 0 native plugins for Editor in 0.00 ms.
Mono: successfully reloaded assembly
- Completed reload, in  0.589 seconds
Platform modules already initialized, skipping
Refreshing native plugins compatible for Editor in 0.17 ms, found 0 plugins.
Preloading 0 native plugins for Editor in 0.00 ms.
Unloading 1115 Unused Serialized files (Serialized files now loaded: 0)
System memory in use before: 60.8 MB.
System memory in use after: 60.8 MB.

Unloading 5 unused Assets to reduce memory usage. Loaded Objects now: 1653.
Total: 1.240900 ms (FindLiveObjects: 0.100700 ms CreateObjectMapping: 0.026600 ms MarkObjects: 1.078300 ms  DeleteObjects: 0.034500 ms)

========================================================================
Received Import Request.
  Time since last request: 74.373865 seconds.
  path: Assets/Prefabs/Bullet.prefab
  artifactKey: Guid(8a36a407ea8c26c4a992a961fb4608de) Importer(815301076,1909f56bfc062723c751e8b465ee728b)
Start importing Assets/Prefabs/Bullet.prefab using Guid(8a36a407ea8c26c4a992a961fb4608de) Importer(815301076,1909f56bfc062723c751e8b465ee728b)  -> (artifact id: '47964dc43ea56d4d1f338eb172c55d71') in 0.049562 seconds
  Import took 0.051875 seconds .

========================================================================
Received Prepare
Registering precompiled user dll's ...
Registered in 0.000744 seconds.
Begin MonoManager ReloadAssembly
Native extension for WindowsStandalone target not found
Refreshing native plugins compatible for Editor in 0.18 ms, found 0 plugins.
Preloading 0 native plugins for Editor in 0.00 ms.
Mono: successfully reloaded assembly
- Completed reload, in  0.601 seconds
Platform modules already initialized, skipping
Refreshing native plugins compatible for Editor in 0.17 ms, found 0 plugins.
Preloading 0 native plugins for Editor in 0.00 ms.
Unloading 1115 Unused Serialized files (Serialized files now loaded: 0)
System memory in use before: 60.8 MB.
System memory in use after: 60.9 MB.

Unloading 5 unused Assets to reduce memory usage. Loaded Objects now: 1657.
Total: 1.426400 ms (FindLiveObjects: 0.102200 ms CreateObjectMapping: 0.026700 ms MarkObjects: 1.259300 ms  DeleteObjects: 0.037700 ms)

========================================================================
Received Prepare
Registering precompiled user dll's ...
Registered in 0.000518 seconds.
Begin MonoManager ReloadAssembly
Native extension for WindowsStandalone target not found
Refreshing native plugins compatible for Editor in 0.18 ms, found 0 plugins.
Preloading 0 native plugins for Editor in 0.00 ms.
Mono: successfully reloaded assembly
- Completed reload, in  0.587 seconds
Platform modules already initialized, skipping
Refreshing native plugins compatible for Editor in 0.17 ms, found 0 plugins.
Preloading 0 native plugins for Editor in 0.00 ms.
Unloading 1115 Unused Serialized files (Serialized files now loaded: 0)
System memory in use before: 60.8 MB.
System memory in use after: 60.9 MB.

Unloading 5 unused Assets to reduce memory usage. Loaded Objects now: 1660.
Total: 1.469100 ms (FindLiveObjects: 0.104600 ms CreateObjectMapping: 0.026700 ms MarkObjects: 1.302400 ms  DeleteObjects: 0.034700 ms)

========================================================================
Received Import Request.
  Time since last request: 69.800510 seconds.
  path: Assets/Prefabs/Hit.prefab
  artifactKey: Guid(688b733a213a4294b855bf81f56db750) Importer(815301076,1909f56bfc062723c751e8b465ee728b)
Start importing Assets/Prefabs/Hit.prefab using Guid(688b733a213a4294b855bf81f56db750) Importer(815301076,1909f56bfc062723c751e8b465ee728b)  -> (artifact id: 'e4b23679da7103c22e92e647859a9ae4') in 0.020667 seconds
  Import took 0.022295 seconds .

========================================================================
Received Import Request.
  Time since last request: 1.363108 seconds.
  path: Assets/Prefabs/Hit.prefab
  artifactKey: Guid(688b733a213a4294b855bf81f56db750) Importer(815301076,1909f56bfc062723c751e8b465ee728b)
Start importing Assets/Prefabs/Hit.prefab using Guid(688b733a213a4294b855bf81f56db750) Importer(815301076,1909f56bfc062723c751e8b465ee728b)  -> (artifact id: '627d642ffdb4f4b61de66ee95fc8c299') in 0.003561 seconds
  Import took 0.005406 seconds .

========================================================================
Received Prepare
Registering precompiled user dll's ...
Registered in 0.000764 seconds.
Begin MonoManager ReloadAssembly
Native extension for WindowsStandalone target not found
Refreshing native plugins compatible for Editor in 0.18 ms, found 0 plugins.
Preloading 0 native plugins for Editor in 0.00 ms.
Mono: successfully reloaded assembly
- Completed reload, in  0.607 seconds
Platform modules already initialized, skipping
Refreshing native plugins compatible for Editor in 0.17 ms, found 0 plugins.
Preloading 0 native plugins for Editor in 0.00 ms.
Unloading 1115 Unused Serialized files (Serialized files now loaded: 0)
System memory in use before: 60.8 MB.
System memory in use after: 60.9 MB.

Unloading 5 unused Assets to reduce memory usage. Loaded Objects now: 1663.
Total: 1.497000 ms (FindLiveObjects: 0.118900 ms CreateObjectMapping: 0.031100 ms MarkObjects: 1.307800 ms  DeleteObjects: 0.038500 ms)

========================================================================
Received Import Request.
  Time since last request: 18.491021 seconds.
  path: Assets/Prefabs/Hit.prefab
  artifactKey: Guid(688b733a213a4294b855bf81f56db750) Importer(815301076,1909f56bfc062723c751e8b465ee728b)
Start importing Assets/Prefabs/Hit.prefab using Guid(688b733a213a4294b855bf81f56db750) Importer(815301076,1909f56bfc062723c751e8b465ee728b)  -> (artifact id: 'b9e9e6642d70a18f743c0595f5dc229d') in 0.020502 seconds
  Import took 0.022224 seconds .

========================================================================
Received Prepare
Registering precompiled user dll's ...
Registered in 0.000822 seconds.
Begin MonoManager ReloadAssembly
Native extension for WindowsStandalone target not found
Refreshing native plugins compatible for Editor in 0.17 ms, found 0 plugins.
Preloading 0 native plugins for Editor in 0.00 ms.
Mono: successfully reloaded assembly
- Completed reload, in  0.589 seconds
Platform modules already initialized, skipping
Refreshing native plugins compatible for Editor in 0.17 ms, found 0 plugins.
Preloading 0 native plugins for Editor in 0.00 ms.
Unloading 1115 Unused Serialized files (Serialized files now loaded: 0)
System memory in use before: 60.8 MB.
System memory in use after: 60.9 MB.

Unloading 5 unused Assets to reduce memory usage. Loaded Objects now: 1666.
Total: 1.328100 ms (FindLiveObjects: 0.104600 ms CreateObjectMapping: 0.025400 ms MarkObjects: 1.160300 ms  DeleteObjects: 0.037200 ms)

========================================================================
Received Import Request.
  Time since last request: 69.686911 seconds.
  path: Assets/Prefabs/Bullet.prefab
  artifactKey: Guid(8a36a407ea8c26c4a992a961fb4608de) Importer(815301076,1909f56bfc062723c751e8b465ee728b)
Start importing Assets/Prefabs/Bullet.prefab using Guid(8a36a407ea8c26c4a992a961fb4608de) Importer(815301076,1909f56bfc062723c751e8b465ee728b)  -> (artifact id: '47d0213f443d5802f1c2c531aafe6e87') in 0.045308 seconds
  Import took 0.047099 seconds .

========================================================================
Received Prepare
Registering precompiled user dll's ...
Registered in 0.000493 seconds.
Begin MonoManager ReloadAssembly
Native extension for WindowsStandalone target not found
Refreshing native plugins compatible for Editor in 0.18 ms, found 0 plugins.
Preloading 0 native plugins for Editor in 0.00 ms.
Mono: successfully reloaded assembly
- Completed reload, in  0.596 seconds
Platform modules already initialized, skipping
Refreshing native plugins compatible for Editor in 0.18 ms, found 0 plugins.
Preloading 0 native plugins for Editor in 0.00 ms.
Unloading 1115 Unused Serialized files (Serialized files now loaded: 0)
System memory in use before: 60.9 MB.
System memory in use after: 60.9 MB.

Unloading 5 unused Assets to reduce memory usage. Loaded Objects now: 1670.
Total: 1.486600 ms (FindLiveObjects: 0.100000 ms CreateObjectMapping: 0.024400 ms MarkObjects: 1.326400 ms  DeleteObjects: 0.035200 ms)

========================================================================
Received Prepare
Registering precompiled user dll's ...
Registered in 0.000803 seconds.
Begin MonoManager ReloadAssembly
Native extension for WindowsStandalone target not found
Refreshing native plugins compatible for Editor in 0.18 ms, found 0 plugins.
Preloading 0 native plugins for Editor in 0.00 ms.
Mono: successfully reloaded assembly
- Completed reload, in  0.621 seconds
Platform modules already initialized, skipping
Refreshing native plugins compatible for Editor in 0.18 ms, found 0 plugins.
Preloading 0 native plugins for Editor in 0.00 ms.
Unloading 1115 Unused Serialized files (Serialized files now loaded: 0)
System memory in use before: 60.9 MB.
System memory in use after: 60.9 MB.

Unloading 5 unused Assets to reduce memory usage. Loaded Objects now: 1673.
Total: 1.439500 ms (FindLiveObjects: 0.120700 ms CreateObjectMapping: 0.025500 ms MarkObjects: 1.250300 ms  DeleteObjects: 0.042200 ms)

========================================================================
Received Prepare
Registering precompiled user dll's ...
Registered in 0.000508 seconds.
Begin MonoManager ReloadAssembly
Native extension for WindowsStandalone target not found
Refreshing native plugins compatible for Editor in 0.20 ms, found 0 plugins.
Preloading 0 native plugins for Editor in 0.00 ms.
Mono: successfully reloaded assembly
- Completed reload, in  0.629 seconds
Platform modules already initialized, skipping
Refreshing native plugins compatible for Editor in 0.21 ms, found 0 plugins.
Preloading 0 native plugins for Editor in 0.00 ms.
Unloading 1116 Unused Serialized files (Serialized files now loaded: 0)
System memory in use before: 60.9 MB.
System memory in use after: 61.0 MB.

Unloading 5 unused Assets to reduce memory usage. Loaded Objects now: 1677.
Total: 1.240700 ms (FindLiveObjects: 0.112700 ms CreateObjectMapping: 0.028100 ms MarkObjects: 1.060100 ms  DeleteObjects: 0.039000 ms)

========================================================================
Received Prepare
Registering precompiled user dll's ...
Registered in 0.000595 seconds.
Begin MonoManager ReloadAssembly
Native extension for WindowsStandalone target not found
Refreshing native plugins compatible for Editor in 0.19 ms, found 0 plugins.
Preloading 0 native plugins for Editor in 0.00 ms.
Mono: successfully reloaded assembly
- Completed reload, in  0.611 seconds
Platform modules already initialized, skipping
Refreshing native plugins compatible for Editor in 0.18 ms, found 0 plugins.
Preloading 0 native plugins for Editor in 0.00 ms.
Unloading 1116 Unused Serialized files (Serialized files now loaded: 0)
System memory in use before: 60.9 MB.
System memory in use after: 61.0 MB.

Unloading 5 unused Assets to reduce memory usage. Loaded Objects now: 1680.
Total: 1.488900 ms (FindLiveObjects: 0.124000 ms CreateObjectMapping: 0.029600 ms MarkObjects: 1.297400 ms  DeleteObjects: 0.037200 ms)

========================================================================
Received Import Request.
  Time since last request: 94.698118 seconds.
  path: Assets/Scripts/Node.cs
  artifactKey: Guid(35fe37c9b37e1064aad9e407bd60e8b0) Importer(815301076,1909f56bfc062723c751e8b465ee728b)
Start importing Assets/Scripts/Node.cs using Guid(35fe37c9b37e1064aad9e407bd60e8b0) Importer(815301076,1909f56bfc062723c751e8b465ee728b)  -> (artifact id: 'e672b2b6fb7d4423133a80f10e4483a8') in 0.008132 seconds
  Import took 0.010446 seconds .

========================================================================
Received Prepare
Registering precompiled user dll's ...
Registered in 0.000429 seconds.
Begin MonoManager ReloadAssembly
Native extension for WindowsStandalone target not found
Refreshing native plugins compatible for Editor in 0.19 ms, found 0 plugins.
Preloading 0 native plugins for Editor in 0.00 ms.
Mono: successfully reloaded assembly
- Completed reload, in  0.618 seconds
Platform modules already initialized, skipping
Refreshing native plugins compatible for Editor in 0.21 ms, found 0 plugins.
Preloading 0 native plugins for Editor in 0.00 ms.
Unloading 1116 Unused Serialized files (Serialized files now loaded: 0)
System memory in use before: 60.9 MB.
System memory in use after: 61.0 MB.

Unloading 5 unused Assets to reduce memory usage. Loaded Objects now: 1683.
Total: 1.321400 ms (FindLiveObjects: 0.108600 ms CreateObjectMapping: 0.024600 ms MarkObjects: 1.147500 ms  DeleteObjects: 0.040100 ms)

========================================================================
Received Import Request.
  Time since last request: 259.507008 seconds.
  path: Assets/Scripts/Node.cs
  artifactKey: Guid(35fe37c9b37e1064aad9e407bd60e8b0) Importer(815301076,1909f56bfc062723c751e8b465ee728b)
Start importing Assets/Scripts/Node.cs using Guid(35fe37c9b37e1064aad9e407bd60e8b0) Importer(815301076,1909f56bfc062723c751e8b465ee728b)  -> (artifact id: '29c6e85f28250afad859b24132b7ad28') in 0.003215 seconds
  Import took 0.004586 seconds .

========================================================================
Received Import Request.
  Time since last request: 0.000183 seconds.
  path: Assets/Prefabs/Node.prefab
  artifactKey: Guid(374cde3c3e52b5d4ab54ef253f8e40c4) Importer(815301076,1909f56bfc062723c751e8b465ee728b)
Start importing Assets/Prefabs/Node.prefab using Guid(374cde3c3e52b5d4ab54ef253f8e40c4) Importer(815301076,1909f56bfc062723c751e8b465ee728b)  -> (artifact id: 'f12448263f02409b3cdf4805b691f2f3') in 0.040542 seconds
  Import took 0.041952 seconds .

========================================================================
Received Import Request.
  Time since last request: 19.041010 seconds.
  path: Assets/Prefabs/Node.prefab
  artifactKey: Guid(374cde3c3e52b5d4ab54ef253f8e40c4) Importer(815301076,1909f56bfc062723c751e8b465ee728b)
Start importing Assets/Prefabs/Node.prefab using Guid(374cde3c3e52b5d4ab54ef253f8e40c4) Importer(815301076,1909f56bfc062723c751e8b465ee728b)  -> (artifact id: '74cab9c6a8a9ce580d701ac68fb2c410') in 0.008456 seconds
  Import took 0.011167 seconds .

========================================================================
Received Import Request.
  Time since last request: 0.014024 seconds.
  path: Assets/Prefabs/Node.prefab
  artifactKey: Guid(374cde3c3e52b5d4ab54ef253f8e40c4) Importer(815301076,1909f56bfc062723c751e8b465ee728b)
Start importing Assets/Prefabs/Node.prefab using Guid(374cde3c3e52b5d4ab54ef253f8e40c4) Importer(815301076,1909f56bfc062723c751e8b465ee728b)  -> (artifact id: '74cab9c6a8a9ce580d701ac68fb2c410') in 0.012784 seconds
  Import took 0.014490 seconds .

========================================================================
Received Prepare
Registering precompiled user dll's ...
Registered in 0.000734 seconds.
Begin MonoManager ReloadAssembly
Native extension for WindowsStandalone target not found
Refreshing native plugins compatible for Editor in 0.21 ms, found 0 plugins.
Preloading 0 native plugins for Editor in 0.00 ms.
Mono: successfully reloaded assembly
- Completed reload, in  0.642 seconds
Platform modules already initialized, skipping
Refreshing native plugins compatible for Editor in 0.19 ms, found 0 plugins.
Preloading 0 native plugins for Editor in 0.00 ms.
Unloading 1116 Unused Serialized files (Serialized files now loaded: 0)
System memory in use before: 60.9 MB.
System memory in use after: 61.0 MB.

Unloading 6 unused Assets to reduce memory usage. Loaded Objects now: 1687.
Total: 1.425700 ms (FindLiveObjects: 0.103800 ms CreateObjectMapping: 0.024700 ms MarkObjects: 1.257200 ms  DeleteObjects: 0.039500 ms)

========================================================================
Received Prepare
Registering precompiled user dll's ...
Registered in 0.000490 seconds.
Begin MonoManager ReloadAssembly
Native extension for WindowsStandalone target not found
Refreshing native plugins compatible for Editor in 0.18 ms, found 0 plugins.
Preloading 0 native plugins for Editor in 0.00 ms.
Mono: successfully reloaded assembly
- Completed reload, in  0.601 seconds
Platform modules already initialized, skipping
Refreshing native plugins compatible for Editor in 0.18 ms, found 0 plugins.
Preloading 0 native plugins for Editor in 0.00 ms.
Unloading 1116 Unused Serialized files (Serialized files now loaded: 0)
System memory in use before: 60.9 MB.
System memory in use after: 61.0 MB.

Unloading 5 unused Assets to reduce memory usage. Loaded Objects now: 1690.
Total: 1.524900 ms (FindLiveObjects: 0.126900 ms CreateObjectMapping: 0.032000 ms MarkObjects: 1.323400 ms  DeleteObjects: 0.041900 ms)

========================================================================
Received Import Request.
  Time since last request: 239.313635 seconds.
  path: Assets/Scripts/BuildManager.cs
  artifactKey: Guid(35941fc3d7b93784e9702aebc4eb6448) Importer(815301076,1909f56bfc062723c751e8b465ee728b)
Start importing Assets/Scripts/BuildManager.cs using Guid(35941fc3d7b93784e9702aebc4eb6448) Importer(815301076,1909f56bfc062723c751e8b465ee728b)  -> (artifact id: 'd4834f88c57f699770fd2591a63fa611') in 0.006605 seconds
  Import took 0.008282 seconds .

========================================================================
Received Prepare
Registering precompiled user dll's ...
Registered in 0.000448 seconds.
Begin MonoManager ReloadAssembly
Native extension for WindowsStandalone target not found
Refreshing native plugins compatible for Editor in 0.25 ms, found 0 plugins.
Preloading 0 native plugins for Editor in 0.00 ms.
Mono: successfully reloaded assembly
- Completed reload, in  0.619 seconds
Platform modules already initialized, skipping
Refreshing native plugins compatible for Editor in 0.18 ms, found 0 plugins.
Preloading 0 native plugins for Editor in 0.00 ms.
Unloading 1117 Unused Serialized files (Serialized files now loaded: 0)
System memory in use before: 60.9 MB.
System memory in use after: 61.0 MB.

Unloading 5 unused Assets to reduce memory usage. Loaded Objects now: 1694.
Total: 1.337600 ms (FindLiveObjects: 0.116300 ms CreateObjectMapping: 0.024800 ms MarkObjects: 1.160600 ms  DeleteObjects: 0.035200 ms)

========================================================================
Received Prepare
Registering precompiled user dll's ...
Registered in 0.000500 seconds.
Begin MonoManager ReloadAssembly
Native extension for WindowsStandalone target not found
Refreshing native plugins compatible for Editor in 0.29 ms, found 0 plugins.
Preloading 0 native plugins for Editor in 0.00 ms.
Mono: successfully reloaded assembly
- Completed reload, in  0.602 seconds
Platform modules already initialized, skipping
Refreshing native plugins compatible for Editor in 0.21 ms, found 0 plugins.
Preloading 0 native plugins for Editor in 0.00 ms.
Unloading 1117 Unused Serialized files (Serialized files now loaded: 0)
System memory in use before: 60.9 MB.
System memory in use after: 61.0 MB.

Unloading 5 unused Assets to reduce memory usage. Loaded Objects now: 1697.
Total: 1.472900 ms (FindLiveObjects: 0.119300 ms CreateObjectMapping: 0.025000 ms MarkObjects: 1.287200 ms  DeleteObjects: 0.040800 ms)

========================================================================
Received Prepare
Registering precompiled user dll's ...
Registered in 0.000449 seconds.
Begin MonoManager ReloadAssembly
Native extension for WindowsStandalone target not found
Refreshing native plugins compatible for Editor in 0.19 ms, found 0 plugins.
Preloading 0 native plugins for Editor in 0.00 ms.
Mono: successfully reloaded assembly
- Completed reload, in  0.643 seconds
Platform modules already initialized, skipping
Refreshing native plugins compatible for Editor in 0.19 ms, found 0 plugins.
Preloading 0 native plugins for Editor in 0.00 ms.
Unloading 1117 Unused Serialized files (Serialized files now loaded: 0)
System memory in use before: 60.9 MB.
System memory in use after: 61.0 MB.

Unloading 5 unused Assets to reduce memory usage. Loaded Objects now: 1700.
Total: 1.406500 ms (FindLiveObjects: 0.106300 ms CreateObjectMapping: 0.024800 ms MarkObjects: 1.235300 ms  DeleteObjects: 0.039500 ms)

========================================================================
Received Prepare
Registering precompiled user dll's ...
Registered in 0.000638 seconds.
Begin MonoManager ReloadAssembly
Native extension for WindowsStandalone target not found
Refreshing native plugins compatible for Editor in 0.22 ms, found 0 plugins.
Preloading 0 native plugins for Editor in 0.00 ms.
Mono: successfully reloaded assembly
- Completed reload, in  0.587 seconds
Platform modules already initialized, skipping
Refreshing native plugins compatible for Editor in 0.18 ms, found 0 plugins.
Preloading 0 native plugins for Editor in 0.00 ms.
Unloading 1117 Unused Serialized files (Serialized files now loaded: 0)
System memory in use before: 61.0 MB.
System memory in use after: 61.0 MB.

Unloading 5 unused Assets to reduce memory usage. Loaded Objects now: 1703.
Total: 1.485600 ms (FindLiveObjects: 0.118500 ms CreateObjectMapping: 0.025300 ms MarkObjects: 1.301800 ms  DeleteObjects: 0.039300 ms)

========================================================================
Received Prepare
Registering precompiled user dll's ...
Registered in 0.000446 seconds.
Begin MonoManager ReloadAssembly
Native extension for WindowsStandalone target not found
Refreshing native plugins compatible for Editor in 0.20 ms, found 0 plugins.
Preloading 0 native plugins for Editor in 0.00 ms.
Mono: successfully reloaded assembly
- Completed reload, in  0.607 seconds
Platform modules already initialized, skipping
Refreshing native plugins compatible for Editor in 0.17 ms, found 0 plugins.
Preloading 0 native plugins for Editor in 0.00 ms.
Unloading 1117 Unused Serialized files (Serialized files now loaded: 0)
System memory in use before: 61.0 MB.
System memory in use after: 61.0 MB.

Unloading 5 unused Assets to reduce memory usage. Loaded Objects now: 1706.
Total: 1.273500 ms (FindLiveObjects: 0.110400 ms CreateObjectMapping: 0.026600 ms MarkObjects: 1.099800 ms  DeleteObjects: 0.036200 ms)

========================================================================
Received Import Request.
  Time since last request: 775.973514 seconds.
  path: Assets/Prefabs/Node.prefab
  artifactKey: Guid(374cde3c3e52b5d4ab54ef253f8e40c4) Importer(815301076,1909f56bfc062723c751e8b465ee728b)
Start importing Assets/Prefabs/Node.prefab using Guid(374cde3c3e52b5d4ab54ef253f8e40c4) Importer(815301076,1909f56bfc062723c751e8b465ee728b)  -> (artifact id: '7857a762a66b5aef58ffde7ef3b3ecee') in 0.047606 seconds
  Import took 0.049247 seconds .

========================================================================
Received Import Request.
  Time since last request: 6.434698 seconds.
  path: Assets/Prefabs/Node.prefab
  artifactKey: Guid(374cde3c3e52b5d4ab54ef253f8e40c4) Importer(815301076,1909f56bfc062723c751e8b465ee728b)
Start importing Assets/Prefabs/Node.prefab using Guid(374cde3c3e52b5d4ab54ef253f8e40c4) Importer(815301076,1909f56bfc062723c751e8b465ee728b)  -> (artifact id: 'd5ac0d63aa94aa72389aaea26770ea40') in 0.008835 seconds
  Import took 0.010845 seconds .

========================================================================
Received Prepare
Registering precompiled user dll's ...
Registered in 0.000467 seconds.
Begin MonoManager ReloadAssembly
Native extension for WindowsStandalone target not found
Refreshing native plugins compatible for Editor in 0.18 ms, found 0 plugins.
Preloading 0 native plugins for Editor in 0.00 ms.
Mono: successfully reloaded assembly
- Completed reload, in  0.605 seconds
Platform modules already initialized, skipping
Refreshing native plugins compatible for Editor in 0.17 ms, found 0 plugins.
Preloading 0 native plugins for Editor in 0.00 ms.
Unloading 1117 Unused Serialized files (Serialized files now loaded: 0)
System memory in use before: 61.0 MB.
System memory in use after: 61.0 MB.

Unloading 6 unused Assets to reduce memory usage. Loaded Objects now: 1710.
Total: 1.385400 ms (FindLiveObjects: 0.109800 ms CreateObjectMapping: 0.027200 ms MarkObjects: 1.208100 ms  DeleteObjects: 0.039700 ms)

========================================================================
Received Prepare
Registering precompiled user dll's ...
Registered in 0.000650 seconds.
Begin MonoManager ReloadAssembly
Native extension for WindowsStandalone target not found
Refreshing native plugins compatible for Editor in 0.18 ms, found 0 plugins.
Preloading 0 native plugins for Editor in 0.00 ms.
Mono: successfully reloaded assembly
- Completed reload, in  0.611 seconds
Platform modules already initialized, skipping
Refreshing native plugins compatible for Editor in 0.17 ms, found 0 plugins.
Preloading 0 native plugins for Editor in 0.00 ms.
Unloading 1117 Unused Serialized files (Serialized files now loaded: 0)
System memory in use before: 61.0 MB.
System memory in use after: 61.1 MB.

Unloading 5 unused Assets to reduce memory usage. Loaded Objects now: 1713.
Total: 1.327700 ms (FindLiveObjects: 0.115300 ms CreateObjectMapping: 0.028600 ms MarkObjects: 1.144100 ms  DeleteObjects: 0.039000 ms)

========================================================================
Received Prepare
Registering precompiled user dll's ...
Registered in 0.000530 seconds.
Begin MonoManager ReloadAssembly
Native extension for WindowsStandalone target not found
Refreshing native plugins compatible for Editor in 0.18 ms, found 0 plugins.
Preloading 0 native plugins for Editor in 0.00 ms.
Mono: successfully reloaded assembly
- Completed reload, in  0.613 seconds
Platform modules already initialized, skipping
Refreshing native plugins compatible for Editor in 0.17 ms, found 0 plugins.
Preloading 0 native plugins for Editor in 0.00 ms.
Unloading 1117 Unused Serialized files (Serialized files now loaded: 0)
System memory in use before: 61.0 MB.
System memory in use after: 61.1 MB.

Unloading 5 unused Assets to reduce memory usage. Loaded Objects now: 1716.
Total: 1.404100 ms (FindLiveObjects: 0.105900 ms CreateObjectMapping: 0.027100 ms MarkObjects: 1.234300 ms  DeleteObjects: 0.036300 ms)

========================================================================
Received Import Request.
  Time since last request: 87.954867 seconds.
  path: Assets/Prefabs/Node.prefab
  artifactKey: Guid(374cde3c3e52b5d4ab54ef253f8e40c4) Importer(815301076,1909f56bfc062723c751e8b465ee728b)
Start importing Assets/Prefabs/Node.prefab using Guid(374cde3c3e52b5d4ab54ef253f8e40c4) Importer(815301076,1909f56bfc062723c751e8b465ee728b)  -> (artifact id: '52d6baff8fb8d42978d884e99154954d') in 0.044347 seconds
  Import took 0.045842 seconds .

========================================================================
Received Prepare
Registering precompiled user dll's ...
Registered in 0.000762 seconds.
Begin MonoManager ReloadAssembly
Native extension for WindowsStandalone target not found
Refreshing native plugins compatible for Editor in 0.18 ms, found 0 plugins.
Preloading 0 native plugins for Editor in 0.00 ms.
Mono: successfully reloaded assembly
- Completed reload, in  0.595 seconds
Platform modules already initialized, skipping
Refreshing native plugins compatible for Editor in 0.20 ms, found 0 plugins.
Preloading 0 native plugins for Editor in 0.00 ms.
Unloading 1117 Unused Serialized files (Serialized files now loaded: 0)
System memory in use before: 61.0 MB.
System memory in use after: 61.1 MB.

Unloading 6 unused Assets to reduce memory usage. Loaded Objects now: 1720.
Total: 1.649700 ms (FindLiveObjects: 0.135400 ms CreateObjectMapping: 0.030700 ms MarkObjects: 1.441500 ms  DeleteObjects: 0.041600 ms)

========================================================================
Received Import Request.
  Time since last request: 44.197437 seconds.
  path: Assets/Prefabs/Node.prefab
  artifactKey: Guid(374cde3c3e52b5d4ab54ef253f8e40c4) Importer(815301076,1909f56bfc062723c751e8b465ee728b)
Start importing Assets/Prefabs/Node.prefab using Guid(374cde3c3e52b5d4ab54ef253f8e40c4) Importer(815301076,1909f56bfc062723c751e8b465ee728b)  -> (artifact id: '8c9d2abf60e008e1b9e38f08a9949a00') in 0.054337 seconds
  Import took 0.056127 seconds .

========================================================================
Received Import Request.
  Time since last request: 0.773765 seconds.
  path: Assets/Prefabs/Node.prefab
  artifactKey: Guid(374cde3c3e52b5d4ab54ef253f8e40c4) Importer(815301076,1909f56bfc062723c751e8b465ee728b)
Start importing Assets/Prefabs/Node.prefab using Guid(374cde3c3e52b5d4ab54ef253f8e40c4) Importer(815301076,1909f56bfc062723c751e8b465ee728b)  -> (artifact id: '307037b7c5f2fbd09bdd994869503a84') in 0.008307 seconds
  Import took 0.010006 seconds .

========================================================================
Received Import Request.
  Time since last request: 0.010020 seconds.
  path: Assets/Prefabs/Node.prefab
  artifactKey: Guid(374cde3c3e52b5d4ab54ef253f8e40c4) Importer(815301076,1909f56bfc062723c751e8b465ee728b)
Start importing Assets/Prefabs/Node.prefab using Guid(374cde3c3e52b5d4ab54ef253f8e40c4) Importer(815301076,1909f56bfc062723c751e8b465ee728b)  -> (artifact id: '307037b7c5f2fbd09bdd994869503a84') in 0.007055 seconds
  Import took 0.008681 seconds .

========================================================================
Received Import Request.
  Time since last request: 2.471733 seconds.
  path: Assets/Prefabs/Node.prefab
  artifactKey: Guid(374cde3c3e52b5d4ab54ef253f8e40c4) Importer(815301076,1909f56bfc062723c751e8b465ee728b)
Start importing Assets/Prefabs/Node.prefab using Guid(374cde3c3e52b5d4ab54ef253f8e40c4) Importer(815301076,1909f56bfc062723c751e8b465ee728b)  -> (artifact id: 'fb4a7887a3e671f9d41e33fd8ee20082') in 0.015752 seconds
  Import took 0.017578 seconds .

========================================================================
Received Prepare
Registering precompiled user dll's ...
Registered in 0.000495 seconds.
Begin MonoManager ReloadAssembly
Native extension for WindowsStandalone target not found
Refreshing native plugins compatible for Editor in 0.28 ms, found 0 plugins.
Preloading 0 native plugins for Editor in 0.00 ms.
Mono: successfully reloaded assembly
- Completed reload, in  0.669 seconds
Platform modules already initialized, skipping
Refreshing native plugins compatible for Editor in 0.18 ms, found 0 plugins.
Preloading 0 native plugins for Editor in 0.00 ms.
Unloading 1117 Unused Serialized files (Serialized files now loaded: 0)
System memory in use before: 61.0 MB.
System memory in use after: 61.1 MB.

Unloading 6 unused Assets to reduce memory usage. Loaded Objects now: 1724.
Total: 1.490400 ms (FindLiveObjects: 0.148600 ms CreateObjectMapping: 0.038500 ms MarkObjects: 1.261200 ms  DeleteObjects: 0.040800 ms)

========================================================================
Received Import Request.
  Time since last request: 22.663714 seconds.
  path: Assets/Prefabs/Node.prefab
  artifactKey: Guid(374cde3c3e52b5d4ab54ef253f8e40c4) Importer(815301076,1909f56bfc062723c751e8b465ee728b)
Start importing Assets/Prefabs/Node.prefab using Guid(374cde3c3e52b5d4ab54ef253f8e40c4) Importer(815301076,1909f56bfc062723c751e8b465ee728b)  -> (artifact id: '36ecacdcf888c9386e4630e0fac9d30c') in 0.056845 seconds
  Import took 0.058559 seconds .

========================================================================
Received Import Request.
  Time since last request: 0.349657 seconds.
  path: Assets/Prefabs/Node.prefab
  artifactKey: Guid(374cde3c3e52b5d4ab54ef253f8e40c4) Importer(815301076,1909f56bfc062723c751e8b465ee728b)
Start importing Assets/Prefabs/Node.prefab using Guid(374cde3c3e52b5d4ab54ef253f8e40c4) Importer(815301076,1909f56bfc062723c751e8b465ee728b)  -> (artifact id: '68f383e9f33d85d3c562332f9d423f19') in 0.005318 seconds
  Import took 0.006975 seconds .

========================================================================
Received Import Request.
  Time since last request: 0.012426 seconds.
  path: Assets/Prefabs/Node.prefab
  artifactKey: Guid(374cde3c3e52b5d4ab54ef253f8e40c4) Importer(815301076,1909f56bfc062723c751e8b465ee728b)
Start importing Assets/Prefabs/Node.prefab using Guid(374cde3c3e52b5d4ab54ef253f8e40c4) Importer(815301076,1909f56bfc062723c751e8b465ee728b)  -> (artifact id: '68f383e9f33d85d3c562332f9d423f19') in 0.005471 seconds
  Import took 0.007109 seconds .

========================================================================
Received Import Request.
  Time since last request: 7.761451 seconds.
  path: Assets/Prefabs/Node.prefab
  artifactKey: Guid(374cde3c3e52b5d4ab54ef253f8e40c4) Importer(815301076,1909f56bfc062723c751e8b465ee728b)
Start importing Assets/Prefabs/Node.prefab using Guid(374cde3c3e52b5d4ab54ef253f8e40c4) Importer(815301076,1909f56bfc062723c751e8b465ee728b)  -> (artifact id: 'd9574a1f7c6e8a3a2b22fe101a891b10') in 0.008315 seconds
  Import took 0.010806 seconds .

========================================================================
Received Import Request.
  Time since last request: 21.426350 seconds.
  path: Assets/Prefabs/Node.prefab
  artifactKey: Guid(374cde3c3e52b5d4ab54ef253f8e40c4) Importer(815301076,1909f56bfc062723c751e8b465ee728b)
Start importing Assets/Prefabs/Node.prefab using Guid(374cde3c3e52b5d4ab54ef253f8e40c4) Importer(815301076,1909f56bfc062723c751e8b465ee728b)  -> (artifact id: 'b76d0636954fef8fc8910835b4bee2f2') in 0.006203 seconds
  Import took 0.008032 seconds .

========================================================================
Received Import Request.
  Time since last request: 8.124225 seconds.
  path: Assets/Prefabs/Node.prefab
  artifactKey: Guid(374cde3c3e52b5d4ab54ef253f8e40c4) Importer(815301076,1909f56bfc062723c751e8b465ee728b)
Start importing Assets/Prefabs/Node.prefab using Guid(374cde3c3e52b5d4ab54ef253f8e40c4) Importer(815301076,1909f56bfc062723c751e8b465ee728b)  -> (artifact id: 'e2cce8332400ec4cbabd25d5ee30f560') in 0.007764 seconds
  Import took 0.010056 seconds .

========================================================================
Received Import Request.
  Time since last request: 29.398073 seconds.
  path: Assets/Prefabs/Node.prefab
  artifactKey: Guid(374cde3c3e52b5d4ab54ef253f8e40c4) Importer(815301076,1909f56bfc062723c751e8b465ee728b)
Start importing Assets/Prefabs/Node.prefab using Guid(374cde3c3e52b5d4ab54ef253f8e40c4) Importer(815301076,1909f56bfc062723c751e8b465ee728b)  -> (artifact id: 'eca08c6a67310952ea73a7c3f97c085b') in 0.007614 seconds
  Import took 0.009536 seconds .

========================================================================
Received Import Request.
  Time since last request: 0.012088 seconds.
  path: Assets/Prefabs/Node.prefab
  artifactKey: Guid(374cde3c3e52b5d4ab54ef253f8e40c4) Importer(815301076,1909f56bfc062723c751e8b465ee728b)
Start importing Assets/Prefabs/Node.prefab using Guid(374cde3c3e52b5d4ab54ef253f8e40c4) Importer(815301076,1909f56bfc062723c751e8b465ee728b)  -> (artifact id: 'eca08c6a67310952ea73a7c3f97c085b') in 0.008686 seconds
  Import took 0.010314 seconds .

========================================================================
Received Import Request.
  Time since last request: 4.149548 seconds.
  path: Assets/Prefabs/Node.prefab
  artifactKey: Guid(374cde3c3e52b5d4ab54ef253f8e40c4) Importer(815301076,1909f56bfc062723c751e8b465ee728b)
Start importing Assets/Prefabs/Node.prefab using Guid(374cde3c3e52b5d4ab54ef253f8e40c4) Importer(815301076,1909f56bfc062723c751e8b465ee728b)  -> (artifact id: 'ec967c58fbf0e80b585268e7affc2c3f') in 0.009608 seconds
  Import took 0.011684 seconds .

========================================================================
Received Prepare
Registering precompiled user dll's ...
Registered in 0.000495 seconds.
Begin MonoManager ReloadAssembly
Native extension for WindowsStandalone target not found
Refreshing native plugins compatible for Editor in 0.19 ms, found 0 plugins.
Preloading 0 native plugins for Editor in 0.00 ms.
Mono: successfully reloaded assembly
- Completed reload, in  0.645 seconds
Platform modules already initialized, skipping
Refreshing native plugins compatible for Editor in 0.18 ms, found 0 plugins.
Preloading 0 native plugins for Editor in 0.00 ms.
Unloading 1117 Unused Serialized files (Serialized files now loaded: 0)
System memory in use before: 61.0 MB.
System memory in use after: 61.1 MB.

Unloading 6 unused Assets to reduce memory usage. Loaded Objects now: 1728.
Total: 1.378000 ms (FindLiveObjects: 0.124400 ms CreateObjectMapping: 0.030600 ms MarkObjects: 1.178000 ms  DeleteObjects: 0.044400 ms)

========================================================================
Received Import Request.
  Time since last request: 19.998141 seconds.
  path: Assets/Prefabs/Node.prefab
  artifactKey: Guid(374cde3c3e52b5d4ab54ef253f8e40c4) Importer(815301076,1909f56bfc062723c751e8b465ee728b)
Start importing Assets/Prefabs/Node.prefab using Guid(374cde3c3e52b5d4ab54ef253f8e40c4) Importer(815301076,1909f56bfc062723c751e8b465ee728b)  -> (artifact id: 'bd9a86df34095268ee057d30fefb0388') in 0.043341 seconds
  Import took 0.044985 seconds .

========================================================================
Received Import Request.
  Time since last request: 0.631441 seconds.
  path: Assets/Prefabs/Node.prefab
  artifactKey: Guid(374cde3c3e52b5d4ab54ef253f8e40c4) Importer(815301076,1909f56bfc062723c751e8b465ee728b)
Start importing Assets/Prefabs/Node.prefab using Guid(374cde3c3e52b5d4ab54ef253f8e40c4) Importer(815301076,1909f56bfc062723c751e8b465ee728b)  -> (artifact id: 'e373d7dadf27fd64931f32b57a6dff25') in 0.005164 seconds
  Import took 0.006829 seconds .

========================================================================
Received Prepare
Registering precompiled user dll's ...
Registered in 0.000491 seconds.
Begin MonoManager ReloadAssembly
Native extension for WindowsStandalone target not found
Refreshing native plugins compatible for Editor in 0.18 ms, found 0 plugins.
Preloading 0 native plugins for Editor in 0.00 ms.
Mono: successfully reloaded assembly
- Completed reload, in  0.576 seconds
Platform modules already initialized, skipping
Refreshing native plugins compatible for Editor in 0.17 ms, found 0 plugins.
Preloading 0 native plugins for Editor in 0.00 ms.
Unloading 1117 Unused Serialized files (Serialized files now loaded: 0)
System memory in use before: 61.0 MB.
System memory in use after: 61.1 MB.

Unloading 6 unused Assets to reduce memory usage. Loaded Objects now: 1732.
Total: 4.060300 ms (FindLiveObjects: 0.140900 ms CreateObjectMapping: 0.030200 ms MarkObjects: 3.342300 ms  DeleteObjects: 0.545800 ms)

========================================================================
Received Import Request.
  Time since last request: 14.175369 seconds.
  path: Assets/Prefabs/Node.prefab
  artifactKey: Guid(374cde3c3e52b5d4ab54ef253f8e40c4) Importer(815301076,1909f56bfc062723c751e8b465ee728b)
Start importing Assets/Prefabs/Node.prefab using Guid(374cde3c3e52b5d4ab54ef253f8e40c4) Importer(815301076,1909f56bfc062723c751e8b465ee728b)  -> (artifact id: '8b726609d0c5a01f6253753ac2b65020') in 0.040785 seconds
  Import took 0.042436 seconds .

========================================================================
Received Prepare
Registering precompiled user dll's ...
Registered in 0.000919 seconds.
Begin MonoManager ReloadAssembly
Native extension for WindowsStandalone target not found
Refreshing native plugins compatible for Editor in 0.18 ms, found 0 plugins.
Preloading 0 native plugins for Editor in 0.00 ms.
Mono: successfully reloaded assembly
- Completed reload, in  0.594 seconds
Platform modules already initialized, skipping
Refreshing native plugins compatible for Editor in 0.17 ms, found 0 plugins.
Preloading 0 native plugins for Editor in 0.00 ms.
Unloading 1117 Unused Serialized files (Serialized files now loaded: 0)
System memory in use before: 61.1 MB.
System memory in use after: 61.1 MB.

Unloading 6 unused Assets to reduce memory usage. Loaded Objects now: 1736.
Total: 1.495100 ms (FindLiveObjects: 0.122000 ms CreateObjectMapping: 0.025900 ms MarkObjects: 1.307500 ms  DeleteObjects: 0.039100 ms)

========================================================================
Received Prepare
Registering precompiled user dll's ...
Registered in 0.000465 seconds.
Begin MonoManager ReloadAssembly
Native extension for WindowsStandalone target not found
Refreshing native plugins compatible for Editor in 0.18 ms, found 0 plugins.
Preloading 0 native plugins for Editor in 0.00 ms.
Mono: successfully reloaded assembly
- Completed reload, in  0.611 seconds
Platform modules already initialized, skipping
Refreshing native plugins compatible for Editor in 0.17 ms, found 0 plugins.
Preloading 0 native plugins for Editor in 0.00 ms.
Unloading 1117 Unused Serialized files (Serialized files now loaded: 0)
System memory in use before: 61.1 MB.
System memory in use after: 61.1 MB.

Unloading 5 unused Assets to reduce memory usage. Loaded Objects now: 1739.
Total: 1.369700 ms (FindLiveObjects: 0.109100 ms CreateObjectMapping: 0.024500 ms MarkObjects: 1.198000 ms  DeleteObjects: 0.037700 ms)

========================================================================
Received Prepare
Registering precompiled user dll's ...
Registered in 0.000442 seconds.
Begin MonoManager ReloadAssembly
Native extension for WindowsStandalone target not found
Refreshing native plugins compatible for Editor in 0.18 ms, found 0 plugins.
Preloading 0 native plugins for Editor in 0.00 ms.
Mono: successfully reloaded assembly
- Completed reload, in  0.592 seconds
Platform modules already initialized, skipping
Refreshing native plugins compatible for Editor in 0.18 ms, found 0 plugins.
Preloading 0 native plugins for Editor in 0.00 ms.
Unloading 1117 Unused Serialized files (Serialized files now loaded: 0)
System memory in use before: 61.1 MB.
System memory in use after: 61.1 MB.

Unloading 5 unused Assets to reduce memory usage. Loaded Objects now: 1742.
Total: 1.419900 ms (FindLiveObjects: 0.114700 ms CreateObjectMapping: 0.028900 ms MarkObjects: 1.235400 ms  DeleteObjects: 0.040300 ms)

========================================================================
Received Prepare
Registering precompiled user dll's ...
Registered in 0.000866 seconds.
Begin MonoManager ReloadAssembly
Native extension for WindowsStandalone target not found
Refreshing native plugins compatible for Editor in 0.20 ms, found 0 plugins.
Preloading 0 native plugins for Editor in 0.00 ms.
Mono: successfully reloaded assembly
- Completed reload, in  0.644 seconds
Platform modules already initialized, skipping
Refreshing native plugins compatible for Editor in 0.21 ms, found 0 plugins.
Preloading 0 native plugins for Editor in 0.00 ms.
Unloading 1117 Unused Serialized files (Serialized files now loaded: 0)
System memory in use before: 61.1 MB.
System memory in use after: 61.1 MB.

Unloading 5 unused Assets to reduce memory usage. Loaded Objects now: 1745.
Total: 1.541500 ms (FindLiveObjects: 0.146800 ms CreateObjectMapping: 0.043500 ms MarkObjects: 1.309300 ms  DeleteObjects: 0.041100 ms)

========================================================================
Received Prepare
Registering precompiled user dll's ...
Registered in 0.000478 seconds.
Begin MonoManager ReloadAssembly
Native extension for WindowsStandalone target not found
Refreshing native plugins compatible for Editor in 0.18 ms, found 0 plugins.
Preloading 0 native plugins for Editor in 0.00 ms.
Mono: successfully reloaded assembly
- Completed reload, in  0.613 seconds
Platform modules already initialized, skipping
Refreshing native plugins compatible for Editor in 0.19 ms, found 0 plugins.
Preloading 0 native plugins for Editor in 0.00 ms.
Unloading 1117 Unused Serialized files (Serialized files now loaded: 0)
System memory in use before: 61.1 MB.
System memory in use after: 61.1 MB.

Unloading 5 unused Assets to reduce memory usage. Loaded Objects now: 1748.
Total: 1.512700 ms (FindLiveObjects: 0.129300 ms CreateObjectMapping: 0.030000 ms MarkObjects: 1.311000 ms  DeleteObjects: 0.041700 ms)

========================================================================
Received Import Request.
  Time since last request: 1027.520228 seconds.
  path: Assets/Prefabs/Bullet.prefab
  artifactKey: Guid(8a36a407ea8c26c4a992a961fb4608de) Importer(815301076,1909f56bfc062723c751e8b465ee728b)
Start importing Assets/Prefabs/Bullet.prefab using Guid(8a36a407ea8c26c4a992a961fb4608de) Importer(815301076,1909f56bfc062723c751e8b465ee728b)  -> (artifact id: '04668c51bafa79c9171d85cbd1133819') in 0.049752 seconds
  Import took 0.051482 seconds .

========================================================================
Received Import Request.
  Time since last request: 48.531686 seconds.
  path: Assets/Audio/PM_FN_Spawns_Portals_Teleports_5.mp3
  artifactKey: Guid(d5b26718852f47c4598c7f2a1818300b) Importer(815301076,1909f56bfc062723c751e8b465ee728b)
Start importing Assets/Audio/PM_FN_Spawns_Portals_Teleports_5.mp3 using Guid(d5b26718852f47c4598c7f2a1818300b) Importer(815301076,1909f56bfc062723c751e8b465ee728b)  -> (artifact id: 'f7eb1fe8f3f1061596c1dbfe49e5b15c') in 0.178249 seconds
  Import took 0.180053 seconds .

========================================================================
Received Import Request.
  Time since last request: 42.625237 seconds.
  path: Assets/Audio/science_fiction_machine_object_obliterate.mp3
  artifactKey: Guid(c52e046ab84e1d44ca3b2eafe095d2dc) Importer(815301076,1909f56bfc062723c751e8b465ee728b)
Start importing Assets/Audio/science_fiction_machine_object_obliterate.mp3 using Guid(c52e046ab84e1d44ca3b2eafe095d2dc) Importer(815301076,1909f56bfc062723c751e8b465ee728b)  -> (artifact id: 'b99edfedbbece7ab8191c2d895951323') in 0.052258 seconds
  Import took 0.054243 seconds .

========================================================================
Received Import Request.
  Time since last request: 3.997038 seconds.
  path: Assets/Prefabs/Bullet.prefab
  artifactKey: Guid(8a36a407ea8c26c4a992a961fb4608de) Importer(815301076,1909f56bfc062723c751e8b465ee728b)
Start importing Assets/Prefabs/Bullet.prefab using Guid(8a36a407ea8c26c4a992a961fb4608de) Importer(815301076,1909f56bfc062723c751e8b465ee728b)  -> (artifact id: '4ff03e0c4f93671baa79d1c5c9b3a702') in 0.010119 seconds
  Import took 0.012474 seconds .

========================================================================
Received Prepare
Registering precompiled user dll's ...
Registered in 0.000525 seconds.
Begin MonoManager ReloadAssembly
Native extension for WindowsStandalone target not found
Refreshing native plugins compatible for Editor in 0.18 ms, found 0 plugins.
Preloading 0 native plugins for Editor in 0.00 ms.
Mono: successfully reloaded assembly
- Completed reload, in  0.603 seconds
Platform modules already initialized, skipping
Refreshing native plugins compatible for Editor in 0.18 ms, found 0 plugins.
Preloading 0 native plugins for Editor in 0.00 ms.
Unloading 1117 Unused Serialized files (Serialized files now loaded: 0)
System memory in use before: 61.1 MB.
System memory in use after: 61.2 MB.

Unloading 5 unused Assets to reduce memory usage. Loaded Objects now: 1754.
Total: 1.519600 ms (FindLiveObjects: 0.124700 ms CreateObjectMapping: 0.025700 ms MarkObjects: 1.329600 ms  DeleteObjects: 0.038900 ms)

========================================================================
Received Prepare
Registering precompiled user dll's ...
Registered in 0.000531 seconds.
Begin MonoManager ReloadAssembly
Native extension for WindowsStandalone target not found
Refreshing native plugins compatible for Editor in 0.19 ms, found 0 plugins.
Preloading 0 native plugins for Editor in 0.00 ms.
Mono: successfully reloaded assembly
- Completed reload, in  0.617 seconds
Platform modules already initialized, skipping
Refreshing native plugins compatible for Editor in 0.17 ms, found 0 plugins.
Preloading 0 native plugins for Editor in 0.00 ms.
Unloading 1117 Unused Serialized files (Serialized files now loaded: 0)
System memory in use before: 61.1 MB.
System memory in use after: 61.2 MB.

Unloading 5 unused Assets to reduce memory usage. Loaded Objects now: 1757.
Total: 1.368900 ms (FindLiveObjects: 0.127500 ms CreateObjectMapping: 0.029800 ms MarkObjects: 1.169800 ms  DeleteObjects: 0.041200 ms)

========================================================================
Received Import Request.
  Time since last request: 123.866326 seconds.
  path: Assets/Prefabs/Node.prefab
  artifactKey: Guid(374cde3c3e52b5d4ab54ef253f8e40c4) Importer(815301076,1909f56bfc062723c751e8b465ee728b)
Start importing Assets/Prefabs/Node.prefab using Guid(374cde3c3e52b5d4ab54ef253f8e40c4) Importer(815301076,1909f56bfc062723c751e8b465ee728b)  -> (artifact id: '25b429416d4c77d3b6283c2533163507') in 0.051124 seconds
  Import took 0.052772 seconds .

========================================================================
Received Import Request.
  Time since last request: 51.259060 seconds.
  path: Assets/Prefabs/Node.prefab
  artifactKey: Guid(374cde3c3e52b5d4ab54ef253f8e40c4) Importer(815301076,1909f56bfc062723c751e8b465ee728b)
Start importing Assets/Prefabs/Node.prefab using Guid(374cde3c3e52b5d4ab54ef253f8e40c4) Importer(815301076,1909f56bfc062723c751e8b465ee728b)  -> (artifact id: '2d9b864db12ca1031f2ee099d4bad6fc') in 0.010150 seconds
  Import took 0.012319 seconds .

========================================================================
Received Prepare
Registering precompiled user dll's ...
Registered in 0.000394 seconds.
Begin MonoManager ReloadAssembly
Native extension for WindowsStandalone target not found
Refreshing native plugins compatible for Editor in 0.18 ms, found 0 plugins.
Preloading 0 native plugins for Editor in 0.00 ms.
Mono: successfully reloaded assembly
- Completed reload, in  0.597 seconds
Platform modules already initialized, skipping
Refreshing native plugins compatible for Editor in 0.18 ms, found 0 plugins.
Preloading 0 native plugins for Editor in 0.00 ms.
Unloading 1117 Unused Serialized files (Serialized files now loaded: 0)
System memory in use before: 61.1 MB.
System memory in use after: 61.2 MB.

Unloading 6 unused Assets to reduce memory usage. Loaded Objects now: 1761.
Total: 1.418500 ms (FindLiveObjects: 0.119600 ms CreateObjectMapping: 0.027400 ms MarkObjects: 1.230500 ms  DeleteObjects: 0.039900 ms)

AssetImportWorkerClient::OnTransportError - code=2 error=End of file
